{
	"vertexPositions": [0,0.15,-1,0.19509,-0.15,-0.980785,0,-0.15,-1,0.19509,0.15,-0.980785,0.382683,-0.15,-0.92388,0.19509,-0.15,-0.980785,0.382683,0.15,-0.92388,0.55557,-0.15,-0.83147,0.382683,-0.15,-0.92388,0.55557,0.15,-0.83147,0.707107,-0.15,-0.707107,0.55557,-0.15,-0.83147,0.707107,0.15,-0.707107,0.83147,-0.15,-0.55557,0.707107,-0.15,-0.707107,0.83147,0.15,-0.55557,0.92388,-0.15,-0.382683,0.83147,-0.15,-0.55557,0.92388,0.15,-0.382683,0.980785,-0.15,-0.19509,0.92388,-0.15,-0.382683,0.980785,0.15,-0.19509,1,-0.15,-6.89412e-08,0.980785,-0.15,-0.19509,1,0.15,-8.20546e-08,0.980785,-0.15,0.19509,1,-0.15,-6.89412e-08,0.980785,0.15,0.19509,0.92388,-0.15,0.382683,0.980785,-0.15,0.19509,0.92388,0.15,0.382683,0.83147,-0.15,0.55557,0.92388,-0.15,0.382683,0.83147,0.15,0.55557,0.707107,-0.15,0.707107,0.83147,-0.15,0.55557,0.707107,0.15,0.707107,0.55557,-0.15,0.83147,0.707107,-0.15,0.707107,0.55557,0.15,0.83147,0.382683,-0.15,0.92388,0.55557,-0.15,0.83147,0.382683,0.15,0.92388,0.19509,-0.15,0.980785,0.382683,-0.15,0.92388,0.19509,0.15,0.980785,-3.25841e-07,-0.15,1,0.19509,-0.15,0.980785,-3.25841e-07,0.15,1,-0.195091,-0.15,0.980785,-3.25841e-07,-0.15,1,-0.195091,0.15,0.980785,-0.382684,-0.15,0.923879,-0.195091,-0.15,0.980785,-0.382684,0.15,0.923879,-0.555571,-0.15,0.831469,-0.382684,-0.15,0.923879,-0.555571,0.15,0.831469,-0.707107,-0.15,0.707106,-0.555571,-0.15,0.831469,-0.707107,0.15,0.707106,-0.83147,-0.15,0.55557,-0.707107,-0.15,0.707106,-0.83147,0.15,0.55557,-0.92388,-0.15,0.382683,-0.83147,-0.15,0.55557,-0.92388,0.15,0.382683,-0.980785,-0.15,0.195089,-0.92388,-0.15,0.382683,-0.980785,0.15,0.195089,-1,-0.15,-9.59042e-07,-0.980785,-0.15,0.195089,-1,0.15,-9.72156e-07,-0.980785,-0.15,-0.195091,-1,-0.15,-9.59042e-07,-0.980785,0.15,-0.195091,-0.923879,-0.15,-0.382684,-0.980785,-0.15,-0.195091,-0.923879,0.15,-0.382684,-0.831469,-0.15,-0.555571,-0.923879,-0.15,-0.382684,-0.831469,0.15,-0.555571,-0.707106,-0.15,-0.707108,-0.831469,-0.15,-0.555571,-0.707106,0.15,-0.707108,-0.555569,-0.15,-0.83147,-0.707106,-0.15,-0.707108,-0.555569,0.15,-0.83147,-0.382682,-0.15,-0.92388,-0.555569,-0.15,-0.83147,-0.923879,0.15,-0.382684,-0.382684,0.15,0.923879,0.92388,0.15,0.382683,-0.195089,0.15,-0.980786,0,-0.15,-1,-0.195089,-0.15,-0.980786,-0.382682,0.15,-0.92388,-0.195089,-0.15,-0.980786,-0.382682,-0.15,-0.92388,0.980785,-0.15,-0.19509,0.19509,-0.15,0.980785,-0.980785,-0.15,0.195089,0.19509,0.15,-0.980785,0.382683,0.15,-0.92388,0.55557,0.15,-0.83147,0.707107,0.15,-0.707107,0.83147,0.15,-0.55557,0.83147,0.15,-0.55557,0.92388,0.15,-0.382683,0.92388,-0.15,-0.382683,0.980785,0.15,-0.19509,0.980785,0.15,-0.19509,1,0.15,-8.20546e-08,1,-0.15,-6.89412e-08,1,0.15,-8.20546e-08,0.980785,0.15,0.19509,0.980785,-0.15,0.19509,0.92388,0.15,0.382683,0.92388,0.15,0.382683,0.83147,0.15,0.55557,0.83147,-0.15,0.55557,0.707107,0.15,0.707107,0.55557,0.15,0.83147,0.55557,0.15,0.83147,0.382683,0.15,0.92388,0.382683,-0.15,0.92388,0.19509,0.15,0.980785,-3.25841e-07,0.15,1,-0.195091,0.15,0.980785,-0.382684,0.15,0.923879,-0.382684,0.15,0.923879,-0.555571,0.15,0.831469,-0.555571,-0.15,0.831469,-0.707107,0.15,0.707106,-0.83147,0.15,0.55557,-0.83147,0.15,0.55557,-0.92388,0.15,0.382683,-0.92388,-0.15,0.382683,-0.980785,0.15,0.195089,-0.980785,0.15,0.195089,-1,0.15,-9.72156e-07,-1,-0.15,-9.59042e-07,-1,0.15,-9.72156e-07,-0.980785,0.15,-0.195091,-0.980785,-0.15,-0.195091,-0.923879,0.15,-0.382684,-0.923879,0.15,-0.382684,-0.831469,0.15,-0.555571,-0.831469,-0.15,-0.555571,-0.707106,0.15,-0.707108,-0.555569,0.15,-0.83147,-0.555569,0.15,-0.83147,-0.382682,0.15,-0.92388,-0.382682,-0.15,-0.92388,0.382683,0.15,-0.92388,0.19509,0.15,-0.980785,0,0.15,-1,-0.195089,0.15,-0.980786,-0.382682,0.15,-0.92388,-0.382682,0.15,-0.92388,-0.555569,0.15,-0.83147,-0.707106,0.15,-0.707108,-0.707106,0.15,-0.707108,-0.831469,0.15,-0.555571,-0.923879,0.15,-0.382684,-0.923879,0.15,-0.382684,-0.980785,0.15,-0.195091,-1,0.15,-9.72156e-07,-1,0.15,-9.72156e-07,-0.980785,0.15,0.195089,-0.923879,0.15,-0.382684,-0.980785,0.15,0.195089,-0.92388,0.15,0.382683,-0.923879,0.15,-0.382684,-0.92388,0.15,0.382683,-0.83147,0.15,0.55557,-0.382684,0.15,0.923879,-0.83147,0.15,0.55557,-0.707107,0.15,0.707106,-0.382684,0.15,0.923879,-0.707107,0.15,0.707106,-0.555571,0.15,0.831469,-0.382684,0.15,0.923879,-0.382684,0.15,0.923879,-0.195091,0.15,0.980785,-3.25841e-07,0.15,1,0.19509,0.15,0.980785,0.382683,0.15,0.92388,0.382683,0.15,0.92388,0.55557,0.15,0.83147,0.707107,0.15,0.707107,0.707107,0.15,0.707107,0.83147,0.15,0.55557,0.92388,0.15,0.382683,0.92388,0.15,0.382683,0.980785,0.15,0.19509,1,0.15,-8.20546e-08,1,0.15,-8.20546e-08,0.980785,0.15,-0.19509,0.92388,0.15,0.382683,0.980785,0.15,-0.19509,0.92388,0.15,-0.382683,0.92388,0.15,0.382683,0.92388,0.15,-0.382683,0.83147,0.15,-0.55557,0.707107,0.15,-0.707107,0.707107,0.15,-0.707107,0.55557,0.15,-0.83147,0.382683,0.15,-0.92388,-0.382682,0.15,-0.92388,-0.707106,0.15,-0.707108,0.382683,0.15,-0.92388,-0.707106,0.15,-0.707108,-0.923879,0.15,-0.382684,0.382683,0.15,-0.92388,-0.382684,0.15,0.923879,-3.25841e-07,0.15,1,0.92388,0.15,0.382683,-3.25841e-07,0.15,1,0.382683,0.15,0.92388,0.92388,0.15,0.382683,0.382683,0.15,0.92388,0.707107,0.15,0.707107,0.92388,0.15,0.382683,0.92388,0.15,-0.382683,0.707107,0.15,-0.707107,0.92388,0.15,0.382683,0.707107,0.15,-0.707107,0.382683,0.15,-0.92388,0.92388,0.15,0.382683,-0.923879,0.15,-0.382684,-0.92388,0.15,0.382683,-0.382684,0.15,0.923879,0.382683,0.15,-0.92388,-0.923879,0.15,-0.382684,0.92388,0.15,0.382683,0,0.15,-1,-0.195089,0.15,-0.980786,-0.195089,-0.15,-0.980786,0,-0.15,-1,0.19509,-0.15,-0.980785,0.19509,-0.15,-0.980785,0.382683,-0.15,-0.92388,0.55557,-0.15,-0.83147,0.55557,-0.15,-0.83147,0.707107,-0.15,-0.707107,0.83147,-0.15,-0.55557,0.83147,-0.15,-0.55557,0.92388,-0.15,-0.382683,0.55557,-0.15,-0.83147,0.92388,-0.15,-0.382683,0.980785,-0.15,-0.19509,0.55557,-0.15,-0.83147,0.980785,-0.15,-0.19509,1,-0.15,-6.89412e-08,0.980785,-0.15,0.19509,0.980785,-0.15,0.19509,0.92388,-0.15,0.382683,0.980785,-0.15,-0.19509,0.92388,-0.15,0.382683,0.83147,-0.15,0.55557,0.980785,-0.15,-0.19509,0.83147,-0.15,0.55557,0.707107,-0.15,0.707107,0.19509,-0.15,0.980785,0.707107,-0.15,0.707107,0.55557,-0.15,0.83147,0.19509,-0.15,0.980785,0.55557,-0.15,0.83147,0.382683,-0.15,0.92388,0.19509,-0.15,0.980785,0.19509,-0.15,0.980785,-3.25841e-07,-0.15,1,-0.195091,-0.15,0.980785,-0.195091,-0.15,0.980785,-0.382684,-0.15,0.923879,-0.555571,-0.15,0.831469,-0.555571,-0.15,0.831469,-0.707107,-0.15,0.707106,-0.83147,-0.15,0.55557,-0.83147,-0.15,0.55557,-0.92388,-0.15,0.382683,-0.980785,-0.15,0.195089,-0.980785,-0.15,0.195089,-1,-0.15,-9.59042e-07,-0.980785,-0.15,-0.195091,-0.980785,-0.15,-0.195091,-0.923879,-0.15,-0.382684,-0.831469,-0.15,-0.555571,-0.831469,-0.15,-0.555571,-0.707106,-0.15,-0.707108,-0.195089,-0.15,-0.980786,-0.707106,-0.15,-0.707108,-0.555569,-0.15,-0.83147,-0.195089,-0.15,-0.980786,-0.555569,-0.15,-0.83147,-0.382682,-0.15,-0.92388,-0.195089,-0.15,-0.980786,-0.195089,-0.15,-0.980786,0.19509,-0.15,-0.980785,0.55557,-0.15,-0.83147,0.19509,-0.15,0.980785,-0.195091,-0.15,0.980785,-0.980785,-0.15,0.195089,-0.195091,-0.15,0.980785,-0.555571,-0.15,0.831469,-0.980785,-0.15,0.195089,-0.555571,-0.15,0.831469,-0.83147,-0.15,0.55557,-0.980785,-0.15,0.195089,-0.980785,-0.15,0.195089,-0.980785,-0.15,-0.195091,-0.195089,-0.15,-0.980786,-0.980785,-0.15,-0.195091,-0.831469,-0.15,-0.555571,-0.195089,-0.15,-0.980786,-0.195089,-0.15,-0.980786,0.55557,-0.15,-0.83147,0.980785,-0.15,-0.19509,0.980785,-0.15,-0.19509,0.83147,-0.15,0.55557,0.19509,-0.15,0.980785,-0.195089,-0.15,-0.980786,0.980785,-0.15,-0.19509,-0.980785,-0.15,0.195089],
	"vertexNormals": [0.0980173,0,-0.995185,0.0980173,0,-0.995185,0.0980173,0,-0.995185,0.290285,0,-0.95694,0.290285,0,-0.95694,0.290285,0,-0.95694,0.471397,0,-0.881921,0.471397,0,-0.881921,0.471397,0,-0.881921,0.634393,0,-0.77301,0.634393,0,-0.77301,0.634393,0,-0.77301,0.77301,0,-0.634393,0.77301,0,-0.634393,0.77301,0,-0.634393,0.881921,0,-0.471397,0.881921,0,-0.471397,0.881921,0,-0.471397,0.95694,0,-0.290285,0.95694,0,-0.290285,0.95694,0,-0.290285,0.995185,0,-0.0980173,0.995185,0,-0.0980173,0.995185,0,-0.0980173,0.995185,3.95901e-09,0.098017,0.995185,3.95901e-09,0.098017,0.995185,3.95901e-09,0.098017,0.95694,0,0.290285,0.95694,0,0.290285,0.95694,0,0.290285,0.881921,0,0.471397,0.881921,0,0.471397,0.881921,0,0.471397,0.77301,0,0.634393,0.77301,0,0.634393,0.77301,0,0.634393,0.634393,0,0.77301,0.634393,0,0.77301,0.634393,0,0.77301,0.471397,0,0.881921,0.471397,0,0.881921,0.471397,0,0.881921,0.290284,0,0.95694,0.290284,0,0.95694,0.290284,0,0.95694,0.0980169,0,0.995185,0.0980169,0,0.995185,0.0980169,0,0.995185,-0.0980176,0,0.995185,-0.0980176,0,0.995185,-0.0980176,0,0.995185,-0.290285,0,0.95694,-0.290285,0,0.95694,-0.290285,0,0.95694,-0.471397,0,0.881921,-0.471397,0,0.881921,-0.471397,0,0.881921,-0.634394,0,0.77301,-0.634394,0,0.77301,-0.634394,0,0.77301,-0.773011,0,0.634393,-0.773011,0,0.634393,-0.773011,0,0.634393,-0.881922,0,0.471396,-0.881922,0,0.471396,-0.881922,0,0.471396,-0.956941,0,0.290284,-0.956941,0,0.290284,-0.956941,0,0.290284,-0.995185,0,0.0980163,-0.995185,0,0.0980163,-0.995185,0,0.0980163,-0.995185,-3.95901e-09,-0.0980182,-0.995185,-3.95901e-09,-0.0980182,-0.995185,-3.95901e-09,-0.0980182,-0.95694,0,-0.290286,-0.95694,0,-0.290286,-0.95694,0,-0.290286,-0.881921,0,-0.471398,-0.881921,0,-0.471398,-0.881921,0,-0.471398,-0.77301,0,-0.634394,-0.77301,0,-0.634394,-0.77301,0,-0.634394,-0.634392,0,-0.773011,-0.634392,0,-0.773011,-0.634392,0,-0.773011,-0.471396,0,-0.881922,-0.471396,0,-0.881922,-0.471396,0,-0.881922,3.34042e-09,1,-4.7003e-08,3.34042e-09,1,-4.7003e-08,3.34042e-09,1,-4.7003e-08,-0.0980165,0,-0.995185,-0.0980165,0,-0.995185,-0.0980165,0,-0.995185,-0.290283,0,-0.956941,-0.290283,0,-0.956941,-0.290283,0,-0.956941,-5.89365e-09,-1,4.67516e-08,-5.89365e-09,-1,4.67516e-08,-5.89365e-09,-1,4.67516e-08,0.0980173,0,-0.995185,0.290285,0,-0.95694,0.471397,0,-0.881921,0.634393,0,-0.77301,0.77301,0,-0.634393,0.881921,0,-0.471397,0.881921,0,-0.471397,0.881921,0,-0.471397,0.95694,0,-0.290285,0.995185,-4.28447e-09,-0.0980173,0.995185,-4.28447e-09,-0.0980173,0.995185,-4.28447e-09,-0.0980173,0.995185,-0,0.098017,0.995185,-0,0.098017,0.995185,-0,0.098017,0.95694,-0,0.290285,0.881921,-0,0.471396,0.881921,-0,0.471396,0.881921,-0,0.471396,0.77301,-0,0.634393,0.634393,-0,0.77301,0.471397,-0,0.881921,0.471397,-0,0.881921,0.471397,-0,0.881921,0.290284,-0,0.95694,0.0980169,-0,0.995185,-0.0980176,0,0.995185,-0.290285,0,0.95694,-0.471397,0,0.881921,-0.471397,0,0.881921,-0.471397,0,0.881921,-0.634394,0,0.77301,-0.773011,0,0.634393,-0.881922,0,0.471396,-0.881922,0,0.471396,-0.881922,0,0.471396,-0.956941,0,0.290284,-0.995185,4.2844e-09,0.0980163,-0.995185,4.2844e-09,0.0980163,-0.995185,4.2844e-09,0.0980163,-0.995185,0,-0.0980182,-0.995185,0,-0.0980182,-0.995185,0,-0.0980182,-0.95694,0,-0.290286,-0.881921,0,-0.471398,-0.881921,0,-0.471398,-0.881921,0,-0.471398,-0.77301,0,-0.634394,-0.634392,0,-0.773011,-0.471395,0,-0.881922,-0.471395,0,-0.881922,-0.471395,0,-0.881922,0,1,0,0,1,0,0,1,0,0,1,0,0,1,0,2.47178e-07,1,3.01188e-07,2.47178e-07,1,3.01188e-07,2.47178e-07,1,3.01188e-07,-3.01187e-07,1,-2.47179e-07,-3.01187e-07,1,-2.47179e-07,-3.01187e-07,1,-2.47179e-07,-3.72852e-07,1,-1.13104e-07,-3.72852e-07,1,-1.13104e-07,-3.72852e-07,1,-1.13104e-07,-1.25897e-07,1,-6.39812e-08,-1.25897e-07,1,-6.39812e-08,-1.25897e-07,1,-6.39812e-08,1.28363e-07,1,-3.89385e-08,1.28363e-07,1,-3.89385e-08,1.28363e-07,1,-3.89385e-08,6.68604e-08,1,-1.21928e-07,6.68604e-08,1,-1.21928e-07,6.68604e-08,1,-1.21928e-07,-1.01699e-07,1,8.34618e-08,-1.01699e-07,1,8.34618e-08,-1.01699e-07,1,8.34618e-08,-2.47178e-07,1,3.01188e-07,-2.47178e-07,1,3.01188e-07,-2.47178e-07,1,3.01188e-07,0,1,0,0,1,0,0,1,0,0,1,0,0,1,0,2.47178e-07,1,3.01188e-07,2.47178e-07,1,3.01188e-07,2.47178e-07,1,3.01188e-07,-3.01187e-07,1,-2.47178e-07,-3.01187e-07,1,-2.47178e-07,-3.01187e-07,1,-2.47178e-07,-3.72852e-07,1,-1.13104e-07,-3.72852e-07,1,-1.13104e-07,-3.72852e-07,1,-1.13104e-07,-1.25897e-07,1,-6.39811e-08,-1.25897e-07,1,-6.39811e-08,-1.25897e-07,1,-6.39811e-08,1.28363e-07,1,-3.89386e-08,1.28363e-07,1,-3.89386e-08,1.28363e-07,1,-3.89386e-08,3.01188e-07,1,-2.47178e-07,3.01188e-07,1,-2.47178e-07,3.01188e-07,1,-2.47178e-07,-2.47179e-07,1,3.01188e-07,-2.47179e-07,1,3.01188e-07,-2.47179e-07,1,3.01188e-07,5.35336e-14,1,-6.8741e-08,5.35336e-14,1,-6.8741e-08,5.35336e-14,1,-6.8741e-08,5.23263e-09,1,-4.24349e-08,5.23263e-09,1,-4.24349e-08,5.23263e-09,1,-4.24349e-08,7.40001e-09,1,-3.72023e-08,7.40001e-09,1,-3.72023e-08,7.40001e-09,1,-3.72023e-08,-1.36734e-08,1,-6.87409e-08,-1.36734e-08,1,-6.87409e-08,-1.36734e-08,1,-6.87409e-08,2.75337e-08,1,-2.75338e-08,2.75337e-08,1,-2.75338e-08,2.75337e-08,1,-2.75338e-08,-1.04652e-08,1,-3.89386e-08,-1.04652e-08,1,-3.89386e-08,-1.04652e-08,1,-3.89386e-08,-2.13615e-08,1,-3.67712e-08,-2.13615e-08,1,-3.67712e-08,-2.13615e-08,1,-3.67712e-08,-1.61289e-08,1,-3.89386e-08,-1.61289e-08,1,-3.89386e-08,-1.61289e-08,1,-3.89386e-08,3.34044e-09,1,-4.70031e-08,3.34044e-09,1,-4.70031e-08,3.34044e-09,1,-4.70031e-08,-0.0980165,0,-0.995185,-0.290283,0,-0.956941,-0,-1,0,-0,-1,0,-0,-1,0,-1.13104e-07,-1,3.72853e-07,-1.13104e-07,-1,3.72853e-07,-1.13104e-07,-1,3.72853e-07,0,-1,0,0,-1,0,0,-1,0,-1.85161e-07,-1,1.85161e-07,-1.85161e-07,-1,1.85161e-07,-1.85161e-07,-1,1.85161e-07,6.41817e-08,-1,-1.94693e-08,6.41817e-08,-1,-1.94693e-08,6.41817e-08,-1,-1.94693e-08,0,-1,7.63809e-08,0,-1,7.63809e-08,0,-1,7.63809e-08,2.51794e-07,-1,7.63808e-08,2.51794e-07,-1,7.63808e-08,2.51794e-07,-1,7.63808e-08,-7.93747e-08,-1,4.37636e-08,-7.93747e-08,-1,4.37636e-08,-7.93747e-08,-1,4.37636e-08,-5.18456e-08,-1,-4.25486e-08,-5.18456e-08,-1,-4.25486e-08,-5.18456e-08,-1,-4.25486e-08,-8.34619e-08,-1,-1.01699e-07,-8.34619e-08,-1,-1.01699e-07,-8.34619e-08,-1,-1.01699e-07,1.13103e-07,-1,3.72852e-07,1.13103e-07,-1,3.72852e-07,1.13103e-07,-1,3.72852e-07,0,-1,0,0,-1,0,0,-1,0,-1.13104e-07,-1,3.72853e-07,-1.13104e-07,-1,3.72853e-07,-1.13104e-07,-1,3.72853e-07,0,-1,0,0,-1,0,0,-1,0,3.72852e-07,-1,-1.13103e-07,3.72852e-07,-1,-1.13103e-07,3.72852e-07,-1,-1.13103e-07,-2.96169e-14,-1,7.63808e-08,-2.96169e-14,-1,7.63808e-08,-2.96169e-14,-1,7.63808e-08,-3.72853e-07,-1,-1.13104e-07,-3.72853e-07,-1,-1.13104e-07,-3.72853e-07,-1,-1.13104e-07,-5.18455e-08,-1,-4.25486e-08,-5.18455e-08,-1,-4.25486e-08,-5.18455e-08,-1,-4.25486e-08,-8.34618e-08,-1,-1.01699e-07,-8.34618e-08,-1,-1.01699e-07,-8.34618e-08,-1,-1.01699e-07,1.13103e-07,-1,3.72852e-07,1.13103e-07,-1,3.72852e-07,1.13103e-07,-1,3.72852e-07,-7.62257e-14,-1,9.97966e-08,-7.62257e-14,-1,9.97966e-08,-7.62257e-14,-1,9.97966e-08,-1.15888e-14,-1,3.79311e-08,-1.15888e-14,-1,3.79311e-08,-1.15888e-14,-1,3.79311e-08,4.37453e-08,-1,-5.8141e-09,4.37453e-08,-1,-5.8141e-09,4.37453e-08,-1,-5.8141e-09,-7.05667e-08,-1,7.05666e-08,-7.05667e-08,-1,7.05666e-08,-7.05667e-08,-1,7.05666e-08,3.84495e-08,-1,7.63808e-08,3.84495e-08,-1,7.63808e-08,3.84495e-08,-1,7.63808e-08,5.81407e-09,-1,4.37453e-08,5.81407e-09,-1,4.37453e-08,5.81407e-09,-1,4.37453e-08,1.75219e-08,-1,1.17077e-08,1.75219e-08,-1,1.17077e-08,1.75219e-08,-1,1.17077e-08,1.88861e-08,-1,6.33089e-08,1.88861e-08,-1,6.33089e-08,1.88861e-08,-1,6.33089e-08,-5.89364e-09,-1,4.67516e-08,-5.89364e-09,-1,4.67516e-08,-5.89364e-09,-1,4.67516e-08],
	"vertexTextureCoords": [0.518503,-0.870217,0.460948,-0.801698,0.460948,-0.870217,0.518503,-0.801697,0.460948,-0.733179,0.460948,-0.801698,0.518503,-0.733178,0.460948,-0.66466,0.460948,-0.733179,0.518503,-0.664659,0.460948,-0.596141,0.460948,-0.66466,0.518503,-0.59614,0.460948,-0.527621,0.460948,-0.596141,0.518503,-0.527621,0.460948,-0.459102,0.460948,-0.527621,0.518503,-0.459102,0.460948,-0.390583,0.460948,-0.459102,0.518503,-0.390583,0.460948,-0.322064,0.460948,-0.390583,0.518503,-0.322064,0.460948,-0.253545,0.460948,-0.322064,0.518504,-0.253545,0.460948,-0.185026,0.460948,-0.253545,0.518504,-0.185026,0.460948,-0.116507,0.460948,-0.185026,0.518504,-0.136656,0.460948,-0.0242962,0.460948,-0.136656,0.518504,-0.0242964,0.460948,0.0880632,0.460948,-0.0242962,0.518504,0.088063,0.460948,0.216253,0.460948,0.0880632,0.518504,0.216253,0.460948,0.355347,0.460948,0.216253,0.518504,0.355347,0.460948,0.5,0.460948,0.355347,0.518504,0.5,0.460948,0.644653,0.460948,0.5,0.518504,0.644653,0.460948,0.783747,0.460948,0.644653,0.518504,0.783747,0.460949,0.911937,0.460948,0.783747,0.518504,0.911937,0.460949,1.0243,0.460949,0.911937,0.518504,1.0243,0.460949,1.11651,0.460949,1.0243,0.518504,1.11651,0.460949,1.18503,0.460949,1.11651,0.518504,1.18503,0.460949,1.22722,0.460949,1.18503,0.518502,-1.48689,0.460948,-1.41837,0.460948,-1.48689,0.518503,-1.41837,0.460948,-1.34985,0.460948,-1.41837,0.518503,-1.34985,0.460948,-1.28133,0.460948,-1.34985,0.518503,-1.28133,0.460948,-1.21281,0.460948,-1.28133,0.518503,-1.21281,0.460948,-1.14429,0.460948,-1.21281,0.518503,-1.14429,0.460948,-1.07577,0.460948,-1.14429,0.518503,-1.07577,0.460948,-1.00725,0.460948,-1.07577,0.0259385,0.688141,0.15526,0.0496113,0.46747,0.314099,0.518503,-0.938735,0.460948,-0.870217,0.460948,-0.938736,0.518503,-1.00725,0.460948,-0.938736,0.460948,-1.00725,0.524347,0.600733,0.708953,0.0274426,0.985236,0.410502,0.518503,-0.801697,0.518503,-0.733178,0.518503,-0.664659,0.518503,-0.59614,0.518503,-0.527621,0.518503,-0.527621,0.518503,-0.459102,0.460948,-0.459102,0.518503,-0.390583,0.518503,-0.390583,0.518503,-0.322064,0.460948,-0.322064,0.518503,-0.322064,0.518504,-0.253545,0.460948,-0.253545,0.518504,-0.185026,0.518504,-0.185026,0.518504,-0.116507,0.460948,-0.116507,0.518504,-0.0242964,0.518504,0.088063,0.518504,0.088063,0.518504,0.216253,0.460948,0.216253,0.518504,0.355347,0.518504,0.5,0.518504,0.644653,0.518504,0.783747,0.518504,0.783747,0.518504,0.911937,0.460949,0.911937,0.518504,1.0243,0.518504,1.11651,0.518504,1.11651,0.518504,1.18503,0.460949,1.18503,0.518504,1.22722,0.518502,-1.48689,0.518503,-1.41837,0.460948,-1.41837,0.518503,-1.41837,0.518503,-1.34985,0.460948,-1.34985,0.518503,-1.28133,0.518503,-1.28133,0.518503,-1.21281,0.460948,-1.21281,0.518503,-1.14429,0.518503,-1.07577,0.518503,-1.07577,0.518503,-1.00725,0.460948,-1.00725,0.338148,0.952629,0.293322,0.980439,0.246704,0.989829,0.200087,0.980439,0.15526,0.952629,0.15526,0.952629,0.113948,0.907467,0.0777377,0.84669,0.0777377,0.84669,0.0480205,0.772633,0.0259385,0.688141,0.0259385,0.688141,0.0123407,0.596463,0.00774911,0.50112,0.00774911,0.50112,0.0123405,0.405778,0.0259385,0.688141,0.0123405,0.405778,0.0259384,0.314099,0.0259385,0.688141,0.0259384,0.314099,0.0480202,0.229608,0.15526,0.0496113,0.0480202,0.229608,0.0777373,0.15555,0.15526,0.0496113,0.0777373,0.15555,0.113948,0.0947729,0.15526,0.0496113,0.15526,0.0496113,0.200086,0.0218009,0.246704,0.0124104,0.293322,0.0218008,0.338148,0.0496112,0.338148,0.0496112,0.379461,0.0947728,0.415671,0.15555,0.415671,0.15555,0.445388,0.229607,0.46747,0.314099,0.46747,0.314099,0.481068,0.405777,0.485659,0.50112,0.485659,0.50112,0.481068,0.596463,0.46747,0.314099,0.481068,0.596463,0.46747,0.688141,0.46747,0.314099,0.46747,0.688141,0.445388,0.772632,0.415671,0.84669,0.415671,0.84669,0.379461,0.907467,0.338148,0.952629,0.15526,0.952629,0.0777377,0.84669,0.338148,0.952629,0.0777377,0.84669,0.0259385,0.688141,0.338148,0.952629,0.15526,0.0496113,0.246704,0.0124104,0.46747,0.314099,0.246704,0.0124104,0.338148,0.0496112,0.46747,0.314099,0.338148,0.0496112,0.415671,0.15555,0.46747,0.314099,0.46747,0.688141,0.415671,0.84669,0.46747,0.314099,0.415671,0.84669,0.338148,0.952629,0.46747,0.314099,0.0259385,0.688141,0.0259384,0.314099,0.15526,0.0496113,0.338148,0.952629,0.0259385,0.688141,0.46747,0.314099,0.518503,-0.870217,0.518503,-0.938735,0.800629,0.983792,0.754791,0.99316,0.708953,0.983792,0.708953,0.983792,0.664877,0.956048,0.624255,0.910995,0.624255,0.910995,0.58865,0.850363,0.55943,0.776482,0.55943,0.776482,0.537717,0.692193,0.624255,0.910995,0.537717,0.692193,0.524347,0.600733,0.624255,0.910995,0.524347,0.600733,0.519832,0.505618,0.524347,0.410503,0.524347,0.410503,0.537717,0.319043,0.524347,0.600733,0.537717,0.319043,0.55943,0.234754,0.524347,0.600733,0.55943,0.234754,0.58865,0.160873,0.708953,0.0274426,0.58865,0.160873,0.624255,0.100241,0.708953,0.0274426,0.624255,0.100241,0.664876,0.0551868,0.708953,0.0274426,0.708953,0.0274426,0.754791,0.0180747,0.800629,0.0274424,0.800629,0.0274424,0.844706,0.0551866,0.885327,0.10024,0.885327,0.10024,0.920932,0.160872,0.950153,0.234753,0.950153,0.234753,0.971865,0.319043,0.985236,0.410502,0.985236,0.410502,0.98975,0.505617,0.985236,0.600732,0.985236,0.600732,0.971865,0.692192,0.950153,0.776482,0.950153,0.776482,0.920932,0.850362,0.800629,0.983792,0.920932,0.850362,0.885327,0.910994,0.800629,0.983792,0.885327,0.910994,0.844706,0.956048,0.800629,0.983792,0.800629,0.983792,0.708953,0.983792,0.624255,0.910995,0.708953,0.0274426,0.800629,0.0274424,0.985236,0.410502,0.800629,0.0274424,0.885327,0.10024,0.985236,0.410502,0.885327,0.10024,0.950153,0.234753,0.985236,0.410502,0.985236,0.410502,0.985236,0.600732,0.800629,0.983792,0.985236,0.600732,0.950153,0.776482,0.800629,0.983792,0.800629,0.983792,0.624255,0.910995,0.524347,0.600733,0.524347,0.600733,0.55943,0.234754,0.708953,0.0274426,0.800629,0.983792,0.524347,0.600733,0.985236,0.410502],
	"indices": [0,1,2,3,4,5,6,7,8,9,10,11,12,13,14,15,16,17,18,19,20,21,22,23,24,25,26,27,28,29,30,31,32,33,34,35,36,37,38,39,40,41,42,43,44,45,46,47,48,49,50,51,52,53,54,55,56,57,58,59,60,61,62,63,64,65,66,67,68,69,70,71,72,73,74,75,76,77,78,79,80,81,82,83,84,85,86,87,88,89,90,91,92,93,94,95,96,97,98,99,100,101,0,102,1,3,103,4,6,104,7,9,105,10,12,106,13,107,108,109,18,110,19,111,112,113,114,115,116,27,117,28,118,119,120,33,121,34,36,122,37,123,124,125,42,126,43,45,127,46,48,128,49,51,129,52,130,131,132,57,133,58,60,134,61,135,136,137,66,138,67,139,140,141,142,143,144,75,145,76,146,147,148,81,149,82,84,150,85,151,152,153,154,155,156,156,157,154,157,158,154,159,160,161,162,163,164,165,166,167,168,169,170,171,172,173,174,175,176,177,178,179,180,181,182,183,184,185,185,186,187,188,189,190,191,192,193,194,195,196,197,198,199,200,201,202,203,204,205,206,207,208,209,210,211,212,213,214,215,216,217,218,219,220,221,222,223,224,225,226,227,228,229,230,231,232,233,234,235,93,236,94,96,237,97,238,239,240,241,242,243,244,245,246,247,248,249,250,251,252,253,254,255,256,257,258,259,260,261,262,263,264,265,266,267,268,269,270,271,272,273,274,275,276,277,278,279,280,281,282,283,284,285,286,287,288,289,290,291,292,293,294,295,296,297,298,299,300,301,302,303,304,305,306,307,308,309,310,311,312,313,314,315,316,317,318,319,320,321,322,323,324]   
}